{
  "users": [
    {
      "id": "adbf87e15f9fbd47d18f0e0be7125980e99845ec",
      "name": "Rolf Siggers",
      "title": "Cost Accountant",
      "company": "Geba",
      "city": "Moulay Bouchta"
    },
    {
      "id": "9b41cadc60ea49a0de0f46ab6f013cf01cb18a0a",
      "name": "Georgie Bollum",
      "title": "Sales Associate",
      "company": "Linktype",
      "city": "Aoji-ri"
    },
    {
      "id": "3ac1af18f4ff461a401da521058f0b9a236f17b6",
      "name": "Vinnie Edeson",
      "title": "Chemical Engineer",
      "company": "Buzzshare",
      "city": "London"
    },
    {
      "id": "f4828a198a62065b0500a0f9882dc02824ec124c",
      "name": "Jessey Miners",
      "title": "Administrative Assistant II",
      "company": "Bubbletube",
      "city": "Hejiang"
    },
    {
      "id": "8cf3b6413a35bd1cfebbf30ab2cc28f14675a5fa",
      "name": "Bertram Coupland",
      "title": "Occupational Therapist",
      "company": "Eabox",
      "city": "Kisai"
    },
    {
      "id": "c294fcd55c5369d07795dbd2b5a050ead26445b9",
      "name": "Dorri Ferrer",
      "title": "Developer III",
      "company": "Cogilith",
      "city": "Oematnunu"
    },
    {
      "id": "16a92d223151701993bdbd2580966732dac27942",
      "name": "Barny Aughtie",
      "title": "Financial Analyst",
      "company": "Dabshots",
      "city": "Severo-Zadonsk"
    },
    {
      "id": "655031233cd5925ecf268553d5e71687cb751272",
      "name": "Ivy Ouchterlony",
      "title": "Information Systems Manager",
      "company": "Twinte",
      "city": "Rentian"
    },
    {
      "id": "bc35fa4579b866970ce79c5b70cdfc212463f9e6",
      "name": "Karrie Pickston",
      "title": "VP Sales",
      "company": "Chatterbridge",
      "city": "Podporozh’ye"
    },
    {
      "id": "80c96fb9e847d095530f9c2e4703384656f58969",
      "name": "Damon Donohue",
      "title": "Executive Secretary",
      "company": "Twimm",
      "city": "Velké Meziříčí"
    },
    {
      "id": "4c56d0df017c8594cbbd8d4e68b0c80519c02095",
      "name": "Padraic Camolli",
      "title": "Civil Engineer",
      "company": "Twinte",
      "city": "Shuangfeng"
    },
    {
      "id": "938f0bfd420b73d6e4d113fe4ce4a84c8c607f60",
      "name": "Vern Guerrier",
      "title": "Marketing Manager",
      "company": "Flipopia",
      "city": "Gedangan"
    },
    {
      "id": "d0ebac890895049e5c2ddf130409ebd14e950da3",
      "name": "Hailee Harfleet",
      "title": "Help Desk Operator",
      "company": "Yodel",
      "city": "Xiaoshun"
    },
    {
      "id": "32cc2b530d7e407fd80deed92f25cd18da8a37d3",
      "name": "Rivy Furman",
      "title": "Software Consultant",
      "company": "Wikizz",
      "city": "Laojie"
    },
    {
      "id": "bc8be151b4ae67c691a5a0c9b0f4e03c28c3ed02",
      "name": "Edyth Raspison",
      "title": "Assistant Manager",
      "company": "Oloo",
      "city": "Lolotique"
    },
    {
      "id": "db062737f6fb7e89e47fbb7a39900fa4c72d97e0",
      "name": "Kyrstin Muat",
      "title": "Quality Control Specialist",
      "company": "Livepath",
      "city": "Gambiran"
    },
    {
      "id": "69156279bb57730885cea1b3d942a3aa6c6a66f5",
      "name": "Verna Waszczyk",
      "title": "Payment Adjustment Coordinator",
      "company": "Topicshots",
      "city": "San Bernardo"
    },
    {
      "id": "8ceffd9970146d67273736bcdd469408b04e988a",
      "name": "Linoel Crumpton",
      "title": "Marketing Manager",
      "company": "Oloo",
      "city": "Jeleuk"
    },
    {
      "id": "84cf1d5ce50d9106da7776ec51f99bd3aee62adc",
      "name": "Roselle Greenacre",
      "title": "Design Engineer",
      "company": "Rhycero",
      "city": "Pompéu"
    },
    {
      "id": "b333dd27f3d772903e87dde7feb9ba7e6022c105",
      "name": "Kiley MacKim",
      "title": "Account Coordinator",
      "company": "Mybuzz",
      "city": "Trzebunia"
    },
    {
      "id": "88e033e86a2c4c0c7f3731218b458439f7a93562",
      "name": "Raul Sebrens",
      "title": "Sales Associate",
      "company": "Bluejam",
      "city": "Dorval"
    },
    {
      "id": "e77a83c2a713701833d2ff5e61bfd9e52c862da9",
      "name": "Bruce Steddall",
      "title": "Quality Engineer",
      "company": "Feedfire",
      "city": "Cottbus"
    },
    {
      "id": "916523202fbe253d5cc8e3b1609a3ff85ea85496",
      "name": "Earl Wasiel",
      "title": "Executive Secretary",
      "company": "Realcube",
      "city": "Payabon"
    },
    {
      "id": "f2fb5d24ca99f585889259b642e112b0d7e20bb6",
      "name": "Reinwald Dudlestone",
      "title": "Recruiter",
      "company": "Skilith",
      "city": "San Antonio"
    },
    {
      "id": "aea9540a87f1ff7c33e02a337455ec2858e09af4",
      "name": "Erhart Delph",
      "title": "Database Administrator III",
      "company": "Skipstorm",
      "city": "Hamonggolele"
    },
    {
      "id": "c1c1c6bba64fbfdef80bbdf871cdd64829fb80ae",
      "name": "Coralie Bate",
      "title": "Health Coach IV",
      "company": "Voomm",
      "city": "Szczurowa"
    },
    {
      "id": "f06ec294a6db152bf8b12e8c30914655cc4e6f92",
      "name": "Rebekkah Catchpole",
      "title": "Internal Auditor",
      "company": "Wikibox",
      "city": "Sarband"
    },
    {
      "id": "947f2fe71265eef5ef9c7f3a3a2a6a9f674c46cf",
      "name": "Marlo Tomowicz",
      "title": "Pharmacist",
      "company": "Podcat",
      "city": "Tariji"
    },
    {
      "id": "20226138bd70b0c4a45dcaf4748b7f6da1563837",
      "name": "Wendall Josuweit",
      "title": "Assistant Manager",
      "company": "Skidoo",
      "city": "Villeurbanne"
    },
    {
      "id": "0d97c9a91190a613068c65fff034e500b5e831d2",
      "name": "William Strelitzki",
      "title": "Physical Therapy Assistant",
      "company": "Skidoo",
      "city": "Tân Hưng"
    }
  ]
}
